// Jest Snapshot v1, https://goo.gl/fbAQLP

exports[`<Application /> should render correctly 1`] = `
<React.Fragment>
  <CssBaseline />
  <ForwardRef(WithStyles)
    className="makeStyles-wrapper-1"
    maxWidth="sm"
  >
    <PinPad />
  </ForwardRef(WithStyles)>
</React.Fragment>
`;
